%YAML 1.1
%TAG !u! tag:unity3d.com,2011:
--- !u!114 &11400000
MonoBehaviour:
  m_ObjectHideFlags: 0
  m_CorrespondingSourceObject: {fileID: 0}
  m_PrefabInstance: {fileID: 0}
  m_PrefabAsset: {fileID: 0}
  m_GameObject: {fileID: 0}
  m_Enabled: 1
  m_EditorHideFlags: 0
  m_Script: {fileID: 11500000, guid: 81edbaeb527996f4db7c9b5140664d78, type: 3}
  m_Name: Some ScriptableInt 3
  m_EditorClassIdentifier: 
  _value: 0
  _resetOnEnable: 1
  _minValue: -2147483648
