{
    "name": "FantasyArts.Tools.Samples",
    "rootNamespace": "",
    "references": [
        "GUID:03723f29150a07e4bb2403a7a0f834e1"
    ],
    "includePlatforms": [],
    "excludePlatforms": [],
    "allowUnsafeCode": false,
    "overrideReferences": false,
    "precompiledReferences": [],
    "autoReferenced": true,
    "defineConstraints": [],
    "versionDefines": [],
    "noEngineReferences": false
}