%YAML 1.1
%TAG !u! tag:unity3d.com,2011:
--- !u!114 &11400000
MonoBehaviour:
  m_ObjectHideFlags: 0
  m_CorrespondingSourceObject: {fileID: 0}
  m_PrefabInstance: {fileID: 0}
  m_PrefabAsset: {fileID: 0}
  m_GameObject: {fileID: 0}
  m_Enabled: 1
  m_EditorHideFlags: 0
  m_Script: {fileID: 11500000, guid: 577480b6eb672624c8096ea8d0cb110f, type: 3}
  m_Name: Sample Cursor System
  m_EditorClassIdentifier: 
  _logOnRaise: 0
  _cursorMode: 0
  _defaultPointer: {fileID: 11400000, guid: 8aa759bb92ff79e4480fd122be37dab1, type: 2}
  _disablePointer: {fileID: 11400000, guid: 02cf9a47152d86a41ae95cc01e128111, type: 2}
